<!-- Created with Inkscape (http://www.inkscape.org/) Vectorized manually, animated, corrected and commented by WYKIWYC.Sorry for very bad english.-->
<svg xmlns="http://www.w3.org/2000/svg" height="325" width="134" version="1.1" >
		<!-- Bottom's thing.-->
	<g>
		<path d="m55,297,18,0,2-4,0-7-2-3,0-4-17,0-1,0,0,4-2,3,0,7z" style="stroke:#464646;fill:#999999;"/>
		<path d="m55,283,18,0" style="stroke:#464646;fill:none;"/>
		<path d="m53,289,22,0" style="stroke:#464646;fill:none;"/>
		<path d="m53,292,22,0" style="stroke:#464646;fill:none;"/>
	</g>			<!-- F: Blue area -->
	<path style="fill:#00aaaa;" d="m51,137,26,0,0,140-26,0z"/>	
		<!-- D: Orange area -->		<rect style="fill:#ff7f2a;" height="88" width="26" y="137" x="51">		<animate attributeTye='XML' attributeName='height' values='123; 123; 85; 85; 123' begin='0s' dur='2s' repeatCount='indefinite'  />	</rect>	<g> <!-- E -->		<path d="m51,225,26,0,0,2-1,0,0,1,1,0,0,3-4,0,0-3-18,0,0,3-4,0,0-3,1,0,0-1-1,0z" style="fill:#5a5ad2;" /> 		<circle cx="54" cy="228" r="2"/>				<animateTransform attributeType='XML' attributeName='transform' type='translate' values='0,35; 0,35; 0,-3; 0,-3; 0,35 ' begin='0s' dur='2s' repeatCount='indefinite' />	</g>		
	<g> <!-- Group which move-->
		<g> <!-- B -->
			<path style="stroke:#5a5ad2;fill:#00aa96;" d="m59,147-2,1,0,2-4,0,0,3,4,0,0,1,13,0,0-1,4,0,0-3-3,0-2-3z"/>
			<path style="stroke:#464646;fill:#b3b3b3;" d="m51,149,2,0,1,1.138,0,2.862-3,0z"/>
			<path style="stroke:#464646;fill:#b3b3b3;" d="m77,149-2,0-1,1.138,0,2.862,3,0z"/>			<circle cx="75" cy="152" r="2"/>
		</g>		
		<g> <!-- A -->
			<path style="stroke:#464646;fill:#999999;" d="m55,29,18,0,2,4,0,7-2,3,0,4-17,0-1,0,0-4-2-3,0-7z"/>
			<path style="stroke:#464646;fill:#999999;" d="m59.44,47,9.085,0,0,102.1-0.9755,0.5632,0,2.941-0.8569,3.198-5.436,0-0.9134-3.409,0-2.969-0.8526-0.7631-0.02105-20.11z"/>
			<path style="stroke:#464646;fill:none;" d="m55,43,18,0"/>
			<path style="stroke:#464646;fill:none;" d="m53,39,22,0"/>
			<path style="stroke:#464646;fill:none;" d="m53,35,22,0"/>
		</g>		<!--The animation ! -->		<animateTransform attributeType='XML' attributeName='transform' type='translate' values='0,70; 0,70; 0,-5; 0,-5; 0,70 ' begin='0s' dur='2s' repeatCount='indefinite' />
	</g>			
	<path style="fill:#5a5ad2;" d="m59,131-3,0-1,1,0,3-6,0-1,1,0,5,1,1,0,125-2,1,0,10,2,0,0,2,30,0,0-2,2,0,0-10-2-1,0-125,1-1,0-5-1-1-6,0,0-3-1-1-3,0,0,2,1,0,0,1-1,0,0,3,8,0,0,136-13,4-13-4,0-136,8,0,0-3-1,0,0-1,1,0z"/>
		<!-- Connectors -->	<path style="stroke:#000000;fill:none;" d="m103,118-38,0"/>	
	<path style="stroke:#000000;fill:none;" d="M103,180,75,152">		<animate attributeType='XML' attributeName='d' values='M103,180,75,222 ; M103,180,75,222 ; M103,180,75,147 ; M103,180,75,147 ; M103,180,75,222' dur='2s' repeatCount='indefinite'/>	</path>	
	<path style="stroke:#000000;fill:none;" d="m25,184,23,0"/>
	<path style="stroke:#000000;fill:none;" d="m103,221-32,0"/>	
	<path style="stroke:#000000;fill:none;" d="M21,252,53,229">		<animate attributeType='XML' attributeName='d' values='M21,252,53,264 ; M21,252,53,264 ; M21,252,53,226 ; M21,252,53,226 ; M21,252,53,264' dur='2s' repeatCount='indefinite'/>	</path>	
	<path style="stroke:#000000;fill:none;" d="M21,282,65,268"/>
	<g> <!-- Text (A,B,C,D,E,F ; I choosed the font-family Garamond because it's really clear). -->
		<text style="font-size:20px;font-family:Garamond;writing-mode:lr-tb;fill:#000000;letter-spacing:0px;text-anchor:start;line-height:125%;word-spacing:0px;font-stretch:normal;font-variant:normal;font-weight:normal;font-style:normal;text-align:start;" y="123.27407" x="103.89161" xml:space="preserve"><tspan y="123.27407" x="103.89161">A</tspan></text>
		<text style="font-size:20px;font-family:Garamond;writing-mode:lr-tb;fill:#000000;letter-spacing:0px;text-anchor:start;line-height:125%;word-spacing:0px;font-stretch:normal;font-variant:normal;font-weight:normal;font-style:normal;text-align:start;" y="188.25221" x="8.6270418" xml:space="preserve"><tspan y="188.25221" x="8.6270418">C</tspan></text>
		<text style="font-size:20px;font-family:Garamond;writing-mode:lr-tb;fill:#000000;letter-spacing:0px;text-anchor:start;line-height:125%;word-spacing:0px;font-stretch:normal;font-variant:normal;font-weight:normal;font-style:normal;text-align:start;" y="185.13181" x="102.42317" xml:space="preserve"><tspan y="185.13181" x="102.42317">B</tspan></text>
		<text style="font-size:20px;font-family:Garamond;writing-mode:lr-tb;fill:#000000;letter-spacing:0px;text-anchor:start;line-height:125%;word-spacing:0px;font-stretch:normal;font-variant:normal;font-weight:normal;font-style:normal;text-align:start;" y="228.81766" x="102.97384" xml:space="preserve"><tspan y="228.81766" x="102.97384">D</tspan></text>
		<text style="font-size:20px;font-family:Garamond;writing-mode:lr-tb;fill:#000000;letter-spacing:0px;text-anchor:start;line-height:125%;word-spacing:0px;font-stretch:normal;font-variant:normal;font-weight:normal;font-style:normal;text-align:start;" y="256.71786" x="6.4243922" xml:space="preserve"><tspan y="256.71786" x="6.4243922">E</tspan></text>
		<text style="font-size:20px;font-family:Garamond;writing-mode:lr-tb;fill:#000000;letter-spacing:0px;text-anchor:start;line-height:125%;word-spacing:0px;font-stretch:normal;font-variant:normal;font-weight:normal;font-style:normal;text-align:start;" y="288.28918" x="8.2599335" xml:space="preserve"><tspan y="288.28918" x="8.2599335">F</tspan></text>
	</g>	
				<!-- Static markers -->		<circle cx="65" cy="118" r="2"/>				<circle cy="184" cx="50" r="2"/>		<circle cx="70" cy="221" r="2"/>			<circle cx="65" cy="268" r="2"/>
</svg>
