name,weight
"Wait for wattlog",1
"Suite 0",1
"Suite 1",1
"Suite 2",1
"Suite 3",1
"Suite 4",1
"Suite 5",1
"Suite 6",1
"Suite 7",1
"Suite 8",1
"Suite 9",1
"Suite 10",1
"Suite 11",1
"Suite 12",1
"Suite 13",1
"Suite 14",1
"Suite 15",1
"Suite 16",1
"Suite 17",1
"Suite 18",1
"Suite 19",1
"Suite 20",1
"Suite 21",1
"Suite 22",1
"Suite 23",1
"Suite 24",1
"Suite 25",1
"Suite 26",1
"Suite 27",1
"Suite 28",1
"Suite 29",1
"Suite 30",1
"Suite 31",1
"Suite 32",1
"Suite 33",1
"Suite 34",1
"Suite 35",1
"Suite 36",1
"Suite 37",1
"Suite 38",1
"Suite 39",1
"Suite 40",1
"Suite 41",1
"Suite 42",1
"Suite 43",1
"Suite 44",1
"Suite 45",1
"Suite 46",1
"Suite 47",1
"Suite 48",1
"Suite 49",1
"Suite 50",1
"Suite 51",1
"Suite 52",1
"Suite 53",1
"Suite 54",1
"Suite 55",1
"Suite 56",1
"Suite 57",1
"Suite 58",1
"Suite 59",1
"Suite 60",1
"Suite 61",1
"Suite 62",1
"Suite 63",1
"Suite 64",1
"Suite 65",1
"Suite 66",1
"Suite 67",1
"Suite 68",1
"Suite 69",1
"Suite 70",1
"Suite 71",1
"Suite 72",1
"Suite 73",1
"Suite 74",1
"Suite 75",1
"Suite 76",1
"Suite 77",1
"Suite 78",1
"Suite 79",1
"Suite 80",1
"Suite 81",1
"Suite 82",1
"Suite 83",1
"Suite 84",1
"Suite 85",1
"Suite 86",1
"Suite 87",1
"Suite 88",1
"Suite 89",1
"Suite 90",1
"Suite 91",1
"Suite 92",1
"Suite 93",1
"Suite 94",1
"Suite 95",1
"Suite 96",1
"Suite 97",1
"Suite 98",1
"Suite 99",1
"Idle time",1
