name,weight
"Wait for Wattlog",0
"Load App & Setup Adblock",0
"Enter URL Google (Cheap Flights)",0
"Load & Idle Google",3
"Screenshot Google",0
"Enter URL Million",0
"Load & Idle Million",3
"Screenshot Million",0
"Enter URL Filestube (Greenminer)",0
"Load & Idle Filestube",1
"Screenshot Filestube",0
"Enter URL Engadget (Android Battery Article)",0
"Load & Idle Engadget",1
"Screenshot Engadget",0
"Enter URL Wikipeida (American Idol Clone)",0
"Load & Idle Wikipedia",1
"Screenshot Wikipedia",0
"Enter URL Guardian (Article on Ads)",0
"Load & Idle Guardian",1
"Screenshot Guardian",0
"Exit & Wait",0
