http://10.13.11.34:8080/my-gallery/index.html
http://10.13.11.34:8080/my-gallery/mootools-core-1.4.js
http://10.13.11.34:8080/my-gallery/mootools-more-1.4.js
http://10.13.11.34:8080/my-gallery/mootools-idle.js
http://10.13.11.34:8080/my-gallery/mootools-mooswipe.js
http://10.13.11.34:8080/my-gallery/index.css
http://10.13.11.34:8080/my-gallery/index.js
http://10.13.11.34:8080/my-gallery/data.json
http://10.13.11.34:8080/my-gallery/throbber.gif
http://10.13.11.34:8080/my-gallery/left.png
http://10.13.11.34:8080/my-gallery/right.png
http://10.13.11.34:8080/my-gallery/download.png
http://10.13.11.34:8080/my-gallery/eye.png
http://10.13.11.34:8080/my-gallery/cut-left.png
http://10.13.11.34:8080/my-gallery/back.png
http://10.13.11.34:8080/my-gallery/cut-right.png
http://10.13.11.34:8080/my-gallery/cut-mov.png
http://10.13.11.34:8080/my-gallery/cut-top.png
http://10.13.11.34:8080/my-gallery/noise.png
http://10.13.11.34:8080/my-gallery/thumbs/uy.jpg
http://10.13.11.34:8080/my-gallery/blurs/uy.jpg
http://10.13.11.34:8080/my-gallery/imgs/uy.jpg
http://10.13.11.34:8080/my-gallery/thumbs/zw.jpg
http://10.13.11.34:8080/my-gallery/thumbs/zm.jpg
http://10.13.11.34:8080/my-gallery/thumbs/za.jpg
http://10.13.11.34:8080/my-gallery/thumbs/ye.jpg
http://10.13.11.34:8080/my-gallery/thumbs/ws.jpg
http://10.13.11.34:8080/my-gallery/thumbs/vu.jpg
http://10.13.11.34:8080/my-gallery/thumbs/vn.jpg
http://10.13.11.34:8080/my-gallery/thumbs/ve.jpg
http://10.13.11.34:8080/my-gallery/thumbs/vc.jpg
http://10.13.11.34:8080/my-gallery/thumbs/uz.jpg
http://10.13.11.34:8080/my-gallery/thumbs/va.jpg
http://10.13.11.34:8080/my-gallery/thumbs/us.jpg
http://10.13.11.34:8080/my-gallery/thumbs/ug.jpg
http://10.13.11.34:8080/my-gallery/thumbs/ua.jpg
http://10.13.11.34:8080/my-gallery/thumbs/tw.jpg
http://10.13.11.34:8080/my-gallery/thumbs/tz.jpg
http://10.13.11.34:8080/my-gallery/thumbs/tv.jpg
http://10.13.11.34:8080/my-gallery/thumbs/to.jpg
http://10.13.11.34:8080/my-gallery/thumbs/tr.jpg
http://10.13.11.34:8080/my-gallery/thumbs/tt.jpg
http://10.13.11.34:8080/my-gallery/thumbs/tm.jpg
http://10.13.11.34:8080/my-gallery/thumbs/tn.jpg
http://10.13.11.34:8080/my-gallery/thumbs/tl.jpg
http://10.13.11.34:8080/my-gallery/thumbs/tj.jpg
http://10.13.11.34:8080/my-gallery/thumbs/th.jpg
http://10.13.11.34:8080/my-gallery/thumbs/tg.jpg
http://10.13.11.34:8080/my-gallery/thumbs/td.jpg
http://10.13.11.34:8080/my-gallery/thumbs/sz.jpg
http://10.13.11.34:8080/my-gallery/thumbs/sy.jpg
http://10.13.11.34:8080/my-gallery/thumbs/sv.jpg
http://10.13.11.34:8080/my-gallery/thumbs/st.jpg
http://10.13.11.34:8080/my-gallery/thumbs/sr.jpg
http://10.13.11.34:8080/my-gallery/thumbs/so.jpg
http://10.13.11.34:8080/my-gallery/thumbs/sn.jpg
http://10.13.11.34:8080/my-gallery/thumbs/sm.jpg
http://10.13.11.34:8080/my-gallery/thumbs/sl.jpg
http://10.13.11.34:8080/my-gallery/thumbs/sk.jpg
http://10.13.11.34:8080/my-gallery/thumbs/si.jpg
http://10.13.11.34:8080/my-gallery/thumbs/sg.jpg
http://10.13.11.34:8080/my-gallery/thumbs/sd.jpg
http://10.13.11.34:8080/my-gallery/thumbs/se.jpg
http://10.13.11.34:8080/my-gallery/thumbs/sb.jpg
http://10.13.11.34:8080/my-gallery/thumbs/sc.jpg
http://10.13.11.34:8080/my-gallery/thumbs/sa.jpg
http://10.13.11.34:8080/my-gallery/thumbs/rw.jpg
http://10.13.11.34:8080/my-gallery/thumbs/ru.jpg
http://10.13.11.34:8080/my-gallery/thumbs/rs.jpg
http://10.13.11.34:8080/my-gallery/thumbs/qa.jpg
http://10.13.11.34:8080/my-gallery/thumbs/ro.jpg
http://10.13.11.34:8080/my-gallery/thumbs/py.jpg
http://10.13.11.34:8080/my-gallery/thumbs/pw.jpg
http://10.13.11.34:8080/my-gallery/thumbs/pt.jpg
http://10.13.11.34:8080/my-gallery/thumbs/pk.jpg
http://10.13.11.34:8080/my-gallery/thumbs/pl.jpg
http://10.13.11.34:8080/my-gallery/thumbs/ph.jpg
http://10.13.11.34:8080/my-gallery/thumbs/pg.jpg
http://10.13.11.34:8080/my-gallery/thumbs/pe.jpg
http://10.13.11.34:8080/my-gallery/thumbs/pa.jpg
http://10.13.11.34:8080/my-gallery/thumbs/om.jpg
http://10.13.11.34:8080/my-gallery/thumbs/nz.jpg
http://10.13.11.34:8080/my-gallery/thumbs/np.jpg
http://10.13.11.34:8080/my-gallery/thumbs/nr.jpg
http://10.13.11.34:8080/my-gallery/thumbs/no.jpg
http://10.13.11.34:8080/my-gallery/thumbs/nl.jpg
http://10.13.11.34:8080/my-gallery/thumbs/ni.jpg
http://10.13.11.34:8080/my-gallery/thumbs/ne.jpg
http://10.13.11.34:8080/my-gallery/thumbs/ng.jpg
http://10.13.11.34:8080/my-gallery/thumbs/mz.jpg
http://10.13.11.34:8080/my-gallery/thumbs/na.jpg
http://10.13.11.34:8080/my-gallery/thumbs/my.jpg
http://10.13.11.34:8080/my-gallery/thumbs/mx.jpg
http://10.13.11.34:8080/my-gallery/thumbs/mw.jpg
http://10.13.11.34:8080/my-gallery/thumbs/mv.jpg
http://10.13.11.34:8080/my-gallery/thumbs/mt.jpg
http://10.13.11.34:8080/my-gallery/thumbs/mr.jpg
http://10.13.11.34:8080/my-gallery/thumbs/mu.jpg
http://10.13.11.34:8080/my-gallery/thumbs/mn.jpg
http://10.13.11.34:8080/my-gallery/thumbs/mm.jpg
http://10.13.11.34:8080/my-gallery/thumbs/mk.jpg
http://10.13.11.34:8080/my-gallery/thumbs/ml.jpg
http://10.13.11.34:8080/my-gallery/thumbs/mh.jpg
http://10.13.11.34:8080/my-gallery/thumbs/mg.jpg
http://10.13.11.34:8080/my-gallery/thumbs/md.jpg
http://10.13.11.34:8080/my-gallery/thumbs/me.jpg
http://10.13.11.34:8080/my-gallery/thumbs/mc.jpg
http://10.13.11.34:8080/my-gallery/thumbs/ma.jpg
http://10.13.11.34:8080/my-gallery/thumbs/ly.jpg
http://10.13.11.34:8080/my-gallery/thumbs/lv.jpg
http://10.13.11.34:8080/my-gallery/thumbs/lu.jpg
http://10.13.11.34:8080/my-gallery/thumbs/lt.jpg
http://10.13.11.34:8080/my-gallery/thumbs/ls.jpg
http://10.13.11.34:8080/my-gallery/thumbs/lk.jpg
http://10.13.11.34:8080/my-gallery/thumbs/li.jpg
http://10.13.11.34:8080/my-gallery/thumbs/lr.jpg
http://10.13.11.34:8080/my-gallery/thumbs/lb.jpg
http://10.13.11.34:8080/my-gallery/thumbs/lc.jpg
http://10.13.11.34:8080/my-gallery/thumbs/kz.jpg
http://10.13.11.34:8080/my-gallery/thumbs/la.jpg
http://10.13.11.34:8080/my-gallery/thumbs/kw.jpg
http://10.13.11.34:8080/my-gallery/thumbs/ks.jpg
http://10.13.11.34:8080/my-gallery/thumbs/kp.jpg
http://10.13.11.34:8080/my-gallery/thumbs/kr.jpg
http://10.13.11.34:8080/my-gallery/thumbs/kn.jpg
http://10.13.11.34:8080/my-gallery/thumbs/km.jpg
http://10.13.11.34:8080/my-gallery/thumbs/ki.jpg
http://10.13.11.34:8080/my-gallery/thumbs/kh.jpg
http://10.13.11.34:8080/my-gallery/thumbs/kg.jpg
http://10.13.11.34:8080/my-gallery/thumbs/ke.jpg
http://10.13.11.34:8080/my-gallery/thumbs/jo.jpg
http://10.13.11.34:8080/my-gallery/thumbs/jm.jpg
http://10.13.11.34:8080/my-gallery/thumbs/jp.jpg
http://10.13.11.34:8080/my-gallery/thumbs/it.jpg
http://10.13.11.34:8080/my-gallery/thumbs/is.jpg
http://10.13.11.34:8080/my-gallery/thumbs/ir.jpg
http://10.13.11.34:8080/my-gallery/thumbs/iq.jpg
http://10.13.11.34:8080/my-gallery/thumbs/in.jpg
http://10.13.11.34:8080/my-gallery/thumbs/il.jpg
http://10.13.11.34:8080/my-gallery/thumbs/ie.jpg
http://10.13.11.34:8080/my-gallery/thumbs/id.jpg
http://10.13.11.34:8080/my-gallery/thumbs/hu.jpg
http://10.13.11.34:8080/my-gallery/thumbs/hr.jpg
http://10.13.11.34:8080/my-gallery/thumbs/ht.jpg
http://10.13.11.34:8080/my-gallery/thumbs/hn.jpg
http://10.13.11.34:8080/my-gallery/thumbs/gy.jpg
http://10.13.11.34:8080/my-gallery/thumbs/gw.jpg
http://10.13.11.34:8080/my-gallery/thumbs/gt.jpg
http://10.13.11.34:8080/my-gallery/thumbs/gr.jpg
http://10.13.11.34:8080/my-gallery/thumbs/gq.jpg
http://10.13.11.34:8080/my-gallery/thumbs/gn.jpg
http://10.13.11.34:8080/my-gallery/thumbs/gh.jpg
http://10.13.11.34:8080/my-gallery/thumbs/gm.jpg
http://10.13.11.34:8080/my-gallery/thumbs/ge.jpg
http://10.13.11.34:8080/my-gallery/thumbs/gb.jpg
http://10.13.11.34:8080/my-gallery/thumbs/fr.jpg
http://10.13.11.34:8080/my-gallery/thumbs/ga.jpg
http://10.13.11.34:8080/my-gallery/thumbs/fm.jpg
http://10.13.11.34:8080/my-gallery/thumbs/fj.jpg
http://10.13.11.34:8080/my-gallery/thumbs/et.jpg
http://10.13.11.34:8080/my-gallery/thumbs/es.jpg
http://10.13.11.34:8080/my-gallery/thumbs/fi.jpg
http://10.13.11.34:8080/my-gallery/thumbs/er.jpg
http://10.13.11.34:8080/my-gallery/thumbs/eh.jpg
http://10.13.11.34:8080/my-gallery/thumbs/ec.jpg
http://10.13.11.34:8080/my-gallery/thumbs/eg.jpg
http://10.13.11.34:8080/my-gallery/thumbs/ee.jpg
http://10.13.11.34:8080/my-gallery/thumbs/dz.jpg
http://10.13.11.34:8080/my-gallery/thumbs/do.jpg
http://10.13.11.34:8080/my-gallery/thumbs/dj.jpg
http://10.13.11.34:8080/my-gallery/thumbs/dm.jpg
http://10.13.11.34:8080/my-gallery/thumbs/dk.jpg
http://10.13.11.34:8080/my-gallery/thumbs/cz.jpg
http://10.13.11.34:8080/my-gallery/thumbs/de.jpg
http://10.13.11.34:8080/my-gallery/thumbs/cy.jpg
http://10.13.11.34:8080/my-gallery/thumbs/cv.jpg
http://10.13.11.34:8080/my-gallery/thumbs/cu.jpg
http://10.13.11.34:8080/my-gallery/thumbs/cr.jpg
http://10.13.11.34:8080/my-gallery/thumbs/co.jpg
http://10.13.11.34:8080/my-gallery/thumbs/cm.jpg
http://10.13.11.34:8080/my-gallery/thumbs/cl.jpg
http://10.13.11.34:8080/my-gallery/thumbs/ci.jpg
http://10.13.11.34:8080/my-gallery/thumbs/cn.jpg
http://10.13.11.34:8080/my-gallery/thumbs/cg.jpg
http://10.13.11.34:8080/my-gallery/thumbs/cf.jpg
http://10.13.11.34:8080/my-gallery/thumbs/ch.jpg
http://10.13.11.34:8080/my-gallery/thumbs/cd.jpg
http://10.13.11.34:8080/my-gallery/thumbs/ca.jpg
http://10.13.11.34:8080/my-gallery/thumbs/bz.jpg
http://10.13.11.34:8080/my-gallery/thumbs/by.jpg
http://10.13.11.34:8080/my-gallery/thumbs/bt.jpg
http://10.13.11.34:8080/my-gallery/thumbs/bs.jpg
http://10.13.11.34:8080/my-gallery/thumbs/bw.jpg
http://10.13.11.34:8080/my-gallery/thumbs/br.jpg
http://10.13.11.34:8080/my-gallery/thumbs/bo.jpg
http://10.13.11.34:8080/my-gallery/thumbs/bn.jpg
http://10.13.11.34:8080/my-gallery/thumbs/bj.jpg
http://10.13.11.34:8080/my-gallery/thumbs/bi.jpg
http://10.13.11.34:8080/my-gallery/thumbs/bh.jpg
http://10.13.11.34:8080/my-gallery/thumbs/bg.jpg
http://10.13.11.34:8080/my-gallery/thumbs/bf.jpg
http://10.13.11.34:8080/my-gallery/thumbs/be.jpg
http://10.13.11.34:8080/my-gallery/thumbs/bd.jpg
http://10.13.11.34:8080/my-gallery/thumbs/bb.jpg
http://10.13.11.34:8080/my-gallery/thumbs/ba.jpg
http://10.13.11.34:8080/my-gallery/thumbs/az.jpg
http://10.13.11.34:8080/my-gallery/thumbs/at.jpg
http://10.13.11.34:8080/my-gallery/thumbs/au.jpg
http://10.13.11.34:8080/my-gallery/thumbs/ar.jpg
http://10.13.11.34:8080/my-gallery/thumbs/ao.jpg
http://10.13.11.34:8080/my-gallery/thumbs/am.jpg
http://10.13.11.34:8080/my-gallery/thumbs/al.jpg
http://10.13.11.34:8080/my-gallery/thumbs/ag.jpg
http://10.13.11.34:8080/my-gallery/thumbs/af.jpg
http://10.13.11.34:8080/my-gallery/thumbs/ae.jpg
http://10.13.11.34:8080/my-gallery/thumbs/ad.jpg
http://10.13.11.34:8080/my-gallery/blurs/uz.jpg
http://10.13.11.34:8080/my-gallery/imgs/uz.jpg
http://10.13.11.34:8080/my-gallery/thumbs/gd.jpg