name,weight
"Wait for Wattlog",0
"Load App & Setup Adblock",0
"Enter google.com",0
"Load & Idle google.com",1
"Enter youtube.com",0
"Load & Idle youtube.com",1
"Enter facebook.com",0
"Load & Idle facebook.com",1
"Enter msn.com",0
"Load & Idle msn.com",1
"Enter twitter.com",0
"Load & Idle twitter.com",1
"Enter amazon.com",0
"Load & Idle amazon.com",1
"Enter ebay.com",0
"Load & Idle ebay.com",1
"Enter yahoo.com",0
"Load & Idle yahoo.com",1
"Enter microsoft.com",0
"Load & Idle microsoft.com",1
"Enter pinterest.com",0
"Load & Idle pinterest.com",1
"Enter huffingtonpost.com",0
"Load & Idle huffingtonpost.com",1
"Enter live.com",0
"Load & Idle live.com",1
"Enter wikipedia.org",0
"Load & Idle wikipedia.org",1
"Enter wordpress.com",0
"Load & Idle wordpress.com",1
"Enter bing.com",0
"Load & Idle bing.com",1
"Enter blogger.com",0
"Load & Idle blogger.com",1
"Enter linkedin.com",0
"Load & Idle linkedin.com",1
"Enter ask.com",0
"Load & Idle ask.com",1
"Enter blogspot.com",0
"Load & Idle blogspot.com",1
"Enter about.com",0
"Load & Idle about.com",1
"Enter answers.com",0
"Load & Idle answers.com",1
"Enter adobe.com",0
"Load & Idle adobe.com",1
"Enter craigslist.org",0
"Load & Idle craigslist.org",1
"Enter tumblr.com",0
"Load & Idle tumblr.com",1
"Enter aol.com",0
"Load & Idle aol.com",1
"Enter comcast.net",0
"Load & Idle comcast.net",1
"Enter ehow.com",0
"Load & Idle ehow.com",1
"Enter paypal.com",0
"Load & Idle paypal.com",1
"Enter weather.com",0
"Load & Idle weather.com",1
"Enter godaddy.com",0
"Load & Idle godaddy.com",1
"Enter reddit.com",0
"Load & Idle reddit.com",1
"Enter walmart.com",0
"Load & Idle walmart.com",1
"Enter buzzfeed.com",0
"Load & Idle buzzfeed.com",1
"Enter whitepages.com",0
"Load & Idle whitepages.com",1
"Enter wikia.com",0
"Load & Idle wikia.com",1
"Enter cnn.com",0
"Load & Idle cnn.com",1
"Enter go.com",0
"Load & Idle go.com",1
"Enter vimeo.com",0
"Load & Idle vimeo.com",1
"Enter yellowpages.com",0
"Load & Idle yellowpages.com",1
"Enter inbox.com",0
"Load & Idle inbox.com",1
"Enter imgur.com",0
"Load & Idle imgur.com",1
"Enter wellsfargo.com",0
"Load & Idle wellsfargo.com",1
"Enter imdb.com",0
"Load & Idle imdb.com",1
"Enter nytimes.com",0
"Load & Idle nytimes.com",1
"Enter yelp.com",0
"Load & Idle yelp.com",1
"Enter att.com",0
"Load & Idle att.com",1
"Enter apple.com",0
"Load & Idle apple.com",1
"Enter bleacherreport.com",0
"Load & Idle bleacherreport.com",1
"Enter webmd.com",0
"Load & Idle webmd.com",1
"Enter legacy.com",0
"Load & Idle legacy.com",1
"Enter chase.com",0
"Load & Idle chase.com",1
"Enter mapquest.com",0
"Load & Idle mapquest.com",1
"Enter nydailynews.com",0
"Load & Idle nydailynews.com",1
"Enter ancestry.com",0
"Load & Idle ancestry.com",1
"Enter target.com",0
"Load & Idle target.com",1
"Enter reference.com",0
"Load & Idle reference.com",1
"Enter tmz.com",0
"Load & Idle tmz.com",1
"Enter photobucket.com",0
"Load & Idle photobucket.com",1
"Enter usps.com",0
"Load & Idle usps.com",1
"Enter examiner.com",0
"Load & Idle examiner.com",1
"Enter wow.com",0
"Load & Idle wow.com",1
"Enter msnbc.com",0
"Load & Idle msnbc.com",1
"Enter chacha.com",0
"Load & Idle chacha.com",1
"Enter urbandictionary.com",0
"Load & Idle urbandictionary.com",1
"Enter cnet.com",0
"Load & Idle cnet.com",1
"Enter city-data.com",0
"Load & Idle city-data.com",1
"Enter drudgereport.com",0
"Load & Idle drudgereport.com",1
"Enter bizrate.com",0
"Load & Idle bizrate.com",1
"Enter people.com",0
"Load & Idle people.com",1
"Enter windows.com",0
"Load & Idle windows.com",1
"Enter bankofamerica.com",0
"Load & Idle bankofamerica.com",1
"Enter mlb.com",0
"Load & Idle mlb.com",1
"Enter flickr.com",0
"Load & Idle flickr.com",1
"Enter tripadvisor.com",0
"Load & Idle tripadvisor.com",1
"Enter comcast.com",0
"Load & Idle comcast.com",1
"Enter topix.com",0
"Load & Idle topix.com",1
"Enter booking.com",0
"Load & Idle booking.com",1
"Enter merriam-webster.com",0
"Load & Idle merriam-webster.com",1
"Enter ups.com",0
"Load & Idle ups.com",1
"Enter today.com",0
"Load & Idle today.com",1
"Enter homedepot.com",0
"Load & Idle homedepot.com",1
"Enter goodreads.com",0
"Load & Idle goodreads.com",1
"Enter hp.com",0
"Load & Idle hp.com",1
"Enter zillow.com",0
"Load & Idle zillow.com",1
"Enter sears.com",0
"Load & Idle sears.com",1
"Enter time.com",0
"Load & Idle time.com",1
"Enter drugs.com",0
"Load & Idle drugs.com",1
"Enter bestbuy.com",0
"Load & Idle bestbuy.com",1
"Enter grindtv.com",0
"Load & Idle grindtv.com",1
"Enter usmagazine.com",0
"Load & Idle usmagazine.com",1
"Enter deviantart.com",0
"Load & Idle deviantart.com",1
"Enter mayoclinic.com",0
"Load & Idle mayoclinic.com",1
"Enter norton.com",0
"Load & Idle norton.com",1
"Enter safeshare.tv",0
"Load & Idle safeshare.tv",1
"Enter skype.com",0
"Load & Idle skype.com",1
"Enter lowes.com",0
"Load & Idle lowes.com",1
"Enter babycenter.com",0
"Load & Idle babycenter.com",1
"Enter fixya.com",0
"Load & Idle fixya.com",1
"Enter break.com",0
"Load & Idle break.com",1
"Enter fedex.com",0
"Load & Idle fedex.com",1
"Exit & Wait",0
