http://10.13.11.34:8080/my-gallery/index.html
http://10.13.11.34:8080/my-gallery/mootools-core-1.4.js
http://10.13.11.34:8080/my-gallery/mootools-more-1.4.js
http://10.13.11.34:8080/my-gallery/mootools-idle.js
http://10.13.11.34:8080/my-gallery/mootools-mooswipe.js
http://10.13.11.34:8080/my-gallery/index.css
http://10.13.11.34:8080/my-gallery/index.js
http://10.13.11.34:8080/my-gallery/data.json
http://10.13.11.34:8080/my-gallery/throbber.gif
http://10.13.11.34:8080/my-gallery/left.png
http://10.13.11.34:8080/my-gallery/right.png
http://10.13.11.34:8080/my-gallery/download.png
http://10.13.11.34:8080/my-gallery/eye.png
http://10.13.11.34:8080/my-gallery/cut-left.png
http://10.13.11.34:8080/my-gallery/back.png
http://10.13.11.34:8080/my-gallery/cut-right.png
http://10.13.11.34:8080/my-gallery/cut-mov.png
http://10.13.11.34:8080/my-gallery/cut-top.png
http://10.13.11.34:8080/my-gallery/noise.png
http://10.13.11.34:8080/my-gallery/thumbs/uy.jpg
http://10.13.11.34:8080/my-gallery/blurs/uy.jpg
http://10.13.11.34:8080/my-gallery/imgs/uy.jpg
http://10.13.11.34:8080/my-gallery/thumbs/zw.jpg
http://10.13.11.34:8080/my-gallery/thumbs/zm.jpg
http://10.13.11.34:8080/my-gallery/thumbs/za.jpg
http://10.13.11.34:8080/my-gallery/thumbs/ye.jpg
http://10.13.11.34:8080/my-gallery/thumbs/ws.jpg
http://10.13.11.34:8080/my-gallery/thumbs/vu.jpg
http://10.13.11.34:8080/my-gallery/thumbs/vn.jpg
http://10.13.11.34:8080/my-gallery/thumbs/ve.jpg
http://10.13.11.34:8080/my-gallery/thumbs/vc.jpg
http://10.13.11.34:8080/my-gallery/thumbs/uz.jpg
http://10.13.11.34:8080/my-gallery/thumbs/va.jpg
http://10.13.11.34:8080/my-gallery/thumbs/us.jpg
http://10.13.11.34:8080/my-gallery/thumbs/ug.jpg
http://10.13.11.34:8080/my-gallery/thumbs/ua.jpg
http://10.13.11.34:8080/my-gallery/thumbs/tw.jpg
http://10.13.11.34:8080/my-gallery/thumbs/tz.jpg
http://10.13.11.34:8080/my-gallery/thumbs/tv.jpg
http://10.13.11.34:8080/my-gallery/thumbs/to.jpg